How does a Bike Share Navigate a Speedy Success
…
)

Table 2: Cleaned and Transformed Data

sum(is.na(cyclistic_2020_transformed))

[1] 4

# So, we have found 4 null values - lets get rid of them

cleaned_df = cyclistic_2020_transformed |> drop_na()
cleaned_df

# A tibble: 426,886 × 14
   ride_id          rideable_type started_at          ended_at           
   <chr>            <fct>         <dttm>              <dttm>             
 1 EACB19130B0CDA4A docked_bike   2020-01-21 20:06:59 2020-01-21 20:14:30
 2 8FED874C809DC021 docked_bike   2020-01-30 14:22:39 2020-01-30 14:26:22
 3 789F3C21E472CA96 docked_bike   2020-01-09 19:29:26 2020-01-09 19:32:17
 4 C9A388DAC6ABF313 docked_bike   2020-01-06 16:17:07 2020-01-06 16:25:56
 5 943BC3CBECCFD662 docked_bike   2020-01-30 08:37:16 2020-01-30 08:42:48
 6 6D9C8A6938165C11 docked_bike   2020-01-10 12:33:05 2020-01-10 12:37:54
 7 31EB9B8F406D4C82 docked_bike   2020-01-10 13:07:35 2020-01-10 13:12:24
 8 A2B24E3F9C9720E3 docked_bike   2020-01-10 07:24:53 2020-01-10 07:29:50
 9 5E3F01E1441730B7 docked_bike   2020-01-31 16:37:16 2020-01-31 16:42:11
10 19DC57F7E3140131 docked_bike   2020-01-31 09:39:17 2020-01-31 09:42:40
# ℹ 426,876 more rows
# ℹ 10 more variables: start_station_name <chr>, start_station_id <dbl>,
#   end_station_name <chr>, end_station_id <dbl>, start_lat <dbl>,
#   start_lng <dbl>, end_lat <dbl>, end_lng <dbl>, member_casual <chr>,
#   member_type <fct>
…
